{
  "Data": [
    {
      "eventid":1,
      "event_title": "New event here",
      "event_date": "12-10-2017",
      "event_location":"Delhi"
    },
    {
      "eventid":2,
      "event_title": "New event here",
      "event_date": "13-10-2017",
      "event_location":"Punjab"
    },
    {
      "eventid":3,
      "event_title":"New event here",
      "event_date": "14-10-2017",
      "event_location":"No Eassy"
    },
    {
      "eventid":4,
      "event_title":"New event here",
      "event_date": "15-10-2017",
      "event_location":"No Eassy"
    }
  ]
}