{
  "Data": [
            {"id":1,"title":"sds","desc":"admasmdfasmdadasd","date":"28th,Dec 2017"},
            {"id":2,"title":"kun","desc":"admasmdfasmdadasd ferf","date":"13th,Aug 2017"},
            {"id":3,"title":"sds","desc":"admasmdfasmdadasd rtert erg","date":"3rd,Jan 2017"},
            {"id":4,"title":"ds","desc":"admasmdfasmdadasd gf fdg e","date":"28th,Dec 2017"},
            {"id":5,"title":"kunvartesting","desc":"admasmdfasmdadasd gf fdg e","date":"28th,Dec 2017"}
          ]
}