{
  "Data": [
    {
      "scholarsip_id":1,
      "scholarship_image": "images/scholarship-myPage-image1.jpg",
      "scholarship_title": "A&W Healthcare Educators",
      "scholarsip_description":"Lorem ipsum dolor sit amet, consectetuer adipiscing elit.",
      "scholarship_price": 5000,
      "scholar_time":"December15,2017"
    },
    {
      "scholarsip_id":2,
      "scholarship_image": "images/scholarship-myPage-image1.jpg",
      "scholarship_title": "A&W Healthcare Educators",
      "scholarsip_description":"Lorem ipsum dolor sit amet, consectetuer adipiscing elit.",
      "scholarship_price": 6000,
      "scholar_time":"December15,2017"
    },
    {
      "scholarsip_id":3,
      "scholarship_image": "images/scholarship-myPage-image1.jpg",
      "scholarship_title": "A&W Healthcare Educators",
      "scholarsip_description":"Lorem ipsum dolor sit amet, consectetuer adipiscing elit.",
      "scholarship_price": 7000,
      "scholar_time":"December15,2017"
    },
    {
      "scholarsip_id":4,
      "scholarship_image": "images/scholarship-myPage-image1.jpg",
      "scholarship_title": "A&W Healthcare Educators",
      "scholarsip_description":"Lorem ipsum dolor sit amet, consectetuer adipiscing elit.",
      "scholarship_price": 8000,
      "scholar_time":"December15,2017"
    }
  ]
}