{
  "Data": [
    {
      "book_id":1,
      "SBN_1":"1000-BNC",
      "SBN_2":"333000-KJD",
      "Edition":2017,
      "Author":"sdasd",
      "Description":"Selected by theNew York Times Book Reviewas ",
      "list_price":100,
      "mark_price":300,
      "book_details":"dasdjasndkasdnasndknaskndknasddkaskdnkasndfnsdcdsmnvknfkvnkf vdf vkjn vk efv fv s",
      "book_full_description":"vnfvnfdvfdv dfv kdf vnfsdf",
      "auther_bio":"dadnasksda dfnsfkk fdsfn",
      "table_of_content":"sadsdnsfddf dsfn dsnmf smfn dsmf dsfjerewriew",
      "book_title": "Deepak engineering college",
      "book_sub_title": "NEW1"
    }
  ]
}