{
  "Data": [
    {
      "scholarsip_id":1,
      "scholarship_image": "images/scholarship-landing-logo1.png",
      "scholarship_price": 2000,
      "scholarsip_status":"No Eassy"
    },
    {
      "scholarsip_id":2,
      "scholarship_image": "images/scholarship-landing-logo2.png",
      "scholarship_price": 3000,
      "scholarsip_status":"No Eassy"
    },
    {
      "scholarsip_id":3,
      "scholarship_image":"images/scholarship-landing-logo3.png",
      "scholarship_price": 4000,
      "scholarsip_status":"No Eassy"
    },
    {
      "scholarsip_id":4,
      "scholarship_image":"images/scholarship-landing-logo1.png",
      "scholarship_price": 5000,
      "scholarsip_status":"No Eassy"
    }
  ]
}